Button codes regarding light_controller IR controller:
Button Code - 1: 0x300ffa25dL
Button Code - 2: 0x300ff629dL
Button Code - 3: 0x300ffe21dL
Button Code - 4: 0x300ff22ddL
Button Code - 5: 0x300ff02fdL
Button Code - 6: 0x300ffc23dL
Button Code - 7: 0x300ffe01fL
Button Code - 8: 0x300ffa857L
Button Code - 9: 0x300ff906fL
Button Code - 10: 0x300ff6897L
Button Code - 11: 0x300ff9867L
Button Code - 12: 0x300ffb04fL
Button Code - 13: 0x300ff30cfL
Button Code - 14: 0x300ff7a85L
Button Code - 15: 0x300ff38c7L
Button Code - 16: 0x300ff42bdL
Button Code - 17: 0x300ff52adL